[{
  "id": 1,
  "thumbnail": "thumb-1.jpg"
},
{
  "id": 2,
  "thumbnail": "thumb-2.jpg"
},
{
  "id": 3,
  "thumbnail": "thumb-3.jpg"
},
{
  "id": 4,
  "thumbnail": "thumb-4.jpg"
},
{
  "id": 5,
  "thumbnail": "thumb-5.jpg"
},
{
  "id": 6,
  "thumbnail": "thumb-6.jpg"
},
{
  "id": 7,
  "thumbnail": "thumb-7.jpg"
},
{
  "id": 8,
  "thumbnail": "thumb-8.jpg"
},
{
  "id": 9,
  "thumbnail": "thumb-9.jpg"
},
{
  "id": 10,
  "thumbnail": "thumb-10.jpg"
},
{
  "id": 11,
  "thumbnail": "thumb-11.jpg"
},
{
  "id": 12,
  "thumbnail": "thumb-12.jpg"
},
{
  "id": 13,
  "thumbnail": "thumb-13.jpg"
},
{
  "id": 14,
  "thumbnail": "thumb-14.jpg"
}
]